{
  "phrases": {
    "shop": {
      "staticCards": "Cartes Statiques",
      "animatedCards": "Cartes Animées",
      "search": "Nom",
      "sort": {
        "priceAscending": "Prix croissant",
        "priceDescending": "Prix décroissant",
        "alphabetical": "Alphabetique"
      },
      "unpurchasable": "Afficher non achetable",
      "unowned": "Afficher non acheté",
      "owned": "Acheté",
      "equipped": "ÉQUIPÉ",
      "purchase": {
        "canAfford": {
          "title": "Acheter :name:",
          "desc": "Êtes-vous sûr de vouloir acheter :name: pour :price: ?",
          "yes": "Acheter",
          "no": "Non"
        },
        "cantAfford": {
          "title": "Acheter :name:",
          "desc": "Tu ne peux pas acheter :name:, cela coûte :price:",
          "btn": "Compris"
        }
      },
      "card": {
        "unpurchasable": "Non achetable",
        "level": "(Niveau: :level:)",
        "popup": {
          "title": "Non achetable",
          "desc": "Cette carte est non achetable",
          "btn": "Compris"
        },
        "dontMeetRequirements": {
          "title": "Rang requis",
          "desc": "Vous ne remplissez pas les conditions de groupe d'utilisateurs pour cette carte.",
          "btn:": "Compris"
        },
        "dontMeetLevel": {
          "title": "Niveau requis",
          "desc": "Vous devez être au niveau :level: pour acheter ceci.",
          "btn:": "Compris"
        }
      }
    },
    "card": {
      "phrases": {
        "suicide": "Des erreurs ont été commises",
        "world": "Ça fait mal, hein ?",
        "player": "Tu as été tué par"
      },
      "level": "Niveau :level:",
      "suicide": "Suicide",
      "world": "Monde",
      "dmg": "Vous avez fait :dealtDmg: dégats ici: :dealtHits: et reçu :receivedDmg: dégats ici: :receivedHits:.",
      "hits": {
        "singular": "hit",
        "plural": "hits"
      },
      "respawn": {
          "msg": "Réapparaître dans :time:",
          "skip": {
              "msg": "Appuyez sur :key: pour réapparaître",
              "key": "ESPACE"
          },
          "plural": "secondes",
          "singular": "seconde"
      }
    },
    "killfeed": {
      "dmg": "Vous avez fait :dealtDmg: dégats ici: :dealtHits:.",
      "killed": "Tu as tué",
      "level": "Niveau"
    }
  }
}